"year","month","site_code","product_code","predicted_value"
2019,10,0,"0","LSTM"
2019,10,0,"1","LSTM"
2019,10,0,"0","LSTM"
2019,10,0,"1","LSTM"
2019,10,0,"2","lineare"
2019,10,0,"3","MLP_1"
2019,10,0,"4","MLP_1"
2019,10,0,"5","lineare"
2019,10,0,"6","MLP_1"
2019,10,0,"7","MLP_1"
2019,10,0,"8","LSTM"
2019,10,0,"9","MLP_1"
2019,10,0,"10","MLP_1"
2019,10,1,"0","lineare"
2019,10,1,"1","lineare"
2019,10,1,"2","lineare"
2019,10,1,"3","MLP_1"
2019,10,1,"4","MLP_1"
2019,10,1,"5","lineare"
2019,10,1,"6","MLP_1"
2019,10,1,"7","MLP_1"
2019,10,1,"8","MLP_1"
2019,10,1,"9","MLP_1"
2019,10,1,"10","MLP_1"
